,bproducta_cimIV,eramosum_cimIV,ecoli_cimIV,lplantarum_cimIV,cbuty_cimIV,cbuty_adam,test_species,eramosum_adam,acacae_cimIV,btheta_adam,ecoli_adam,btheta_cimIV,blongum_cimIV,bproducta_adam,acacae_adam,blongum_adam,lplantarum_adam
Whole Graph,5662,5294,6588,4691,5781,5776,117,5278,5438,5525,6575,5567,4581,5623,5396,4549,4658
Glucose,4721,4518,5545,3194,4647,4651,52,4502,4601,4732,5543,4767,3784,4689,4564,3754,3165
AA union,4422,3986,4921,3737,4383,4374,62,3975,4364,4011,4906,4049,3482,4388,4321,3446,3713
AA-Pathway,4170,3852,4701,2962,4081,4085,51,3841,4113,3973,4699,3998,3333,4143,4081,3310,2940
